<?xml version="1.0" encoding="utf-8"?>
<!-- Generator: Adobe Illustrator 17.0.0, SVG Export Plug-In . SVG Version: 6.00 Build 0)  -->
<!DOCTYPE svg PUBLIC "-//W3C//DTD SVG 1.1//EN" "http://www.w3.org/Graphics/SVG/1.1/DTD/svg11.dtd">
<svg version="1.1" id="Слой_1" xmlns="http://www.w3.org/2000/svg" xmlns:xlink="http://www.w3.org/1999/xlink" x="0px" y="0px"
	 width="1549px" height="441px" viewBox="0 0 1549 441" enable-background="new 0 0 1549 441" xml:space="preserve">
<g opacity="0.7">
	<path fill="#F3EB45" d="M281.8,299.833c0,39.157-13.728,72.43-41.18,99.819c-27.456,27.389-60.74,41.084-99.856,41.084
		l-98.409-0.262c-11.229,0-21.05-4.209-29.47-12.638C4.464,419.41,0.254,409.58,0.254,398.347V42.915
		c0-11.405,4.165-21.282,12.499-29.618C21.083,4.959,30.95,0.789,42.355,0.789H239.7c12.277,0,22.365,3.947,30.259,11.84
		c7.894,7.897,11.841,17.983,11.841,30.261c0,12.282-3.947,22.364-11.841,30.261c-7.894,7.893-17.983,11.84-30.259,11.84H84.455
		v73.674h56.573c39.115,0,72.359,13.741,99.725,41.22C268.117,227.367,281.8,260.68,281.8,299.833z M197.599,299.833
		c0-15.822-5.484-29.272-16.445-40.35c-10.966-11.074-24.339-16.617-40.127-16.617H84.455v113.672h56.309
		c15.787,0,29.207-5.492,40.258-16.484C192.074,329.066,197.599,315.659,197.599,299.833z"/>
	<path fill="#F3EB45" d="M748.844,399.426c0,11.577-4.473,21.358-13.411,29.341c-8.942,7.983-19.196,11.969-30.765,11.969
		c-16.306,0-28.405-7.9-36.291-23.705L528.344,136.972L388.315,417.034c-7.89,15.804-19.898,23.701-36.027,23.701
		c-11.574,0-21.831-3.986-30.77-11.969c-8.943-7.983-13.411-17.763-13.411-29.341c0-6.84,1.665-13.59,5-20.261L487.033,31.312
		c10.348-20.696,24.116-31.048,41.311-31.048c17.189,0,30.958,10.352,41.31,31.048l173.927,347.852
		C747.088,386.184,748.844,392.938,748.844,399.426z"/>
	<path fill="#F3EB45" d="M1214.574,220.502c0,61.043-21.359,112.924-64.071,155.64c-42.717,42.715-94.595,64.07-155.64,64.07
		c-61.046,0-112.927-21.354-155.64-64.07c-42.717-42.715-64.071-94.596-64.071-155.64c0-61.047,21.354-112.924,64.071-155.64
		c42.713-42.715,94.594-64.073,155.64-64.073c61.045,0,112.922,21.358,155.64,64.073
		C1193.216,107.578,1214.574,159.455,1214.574,220.502z M1130.374,220.502c0-37.54-13.202-69.508-39.601-95.912
		c-26.403-26.397-58.372-39.599-95.909-39.599c-37.54,0-69.51,13.202-95.909,39.599c-26.403,26.404-39.601,58.372-39.601,95.912
		s13.198,69.508,39.601,95.908c26.399,26.404,58.369,39.599,95.909,39.599c37.537,0,69.506-13.195,95.909-39.599
		C1117.172,290.01,1130.374,258.041,1130.374,220.502z"/>
	<path fill="#F3EB45" d="M1548.745,42.89c0,12.282-3.947,22.364-11.841,30.261c-7.894,7.893-17.983,11.84-30.259,11.84H1351.4
		V398.11c0,12.282-3.947,22.368-11.841,30.261c-7.894,7.893-17.983,11.84-30.259,11.84c-12.281,0-22.366-3.947-30.26-11.84
		c-7.893-7.893-11.841-17.979-11.841-30.261V42.89c0-11.225,4.21-21.049,12.631-29.47c8.42-8.422,18.241-12.631,29.47-12.631
		h197.345c12.276,0,22.365,3.947,30.259,11.84C1544.798,20.526,1548.745,30.611,1548.745,42.89z"/>
</g>
</svg>
